இந்த விசயத்துடன் '$ பட்டியல் பெயர்' என்ற உங்கள் அஞ்சல்

 $ பொருள்

 பட்டியல் மதிப்பீட்டாளர் அதை ஒப்புதலுக்காக மதிப்பாய்வு செய்யும் வரை நடைபெறுகிறது.

 செய்தி நடைபெறுகிறது:

 $ காரணங்கள்

 ஒன்று செய்தி பட்டியலில் வெளியிடப்படும், அல்லது நீங்கள் பெறுவீர்கள்
 மதிப்பீட்டாளரின் முடிவின் அறிவிப்பு.
